{
  "name": "Química II",
  "image": "portada.jpg",
  "temas": [
    {
      "tema": "Introducción",
      "subtemas": [      
        {
          "tema": "Bloque III",
          "url": "index.html"
        },
        {
          "tema": "Integración",
          "url": "integracion.html"
        },
        {
          "tema": "Evaluación diagnóstica",
          "url": "mi_entorno_evaluacion_diagnostica.html"
        },
        {
          "tema": "Mis intereses",
          "url": "mis_intereses.html"
        }
      ]
    },
    {
      "tema": "Carbono",
      "subtemas": [
        {
          "tema": "Configuración electrónica",
          "url": "tema1.0.0.html"
        },
        {
          "tema": "Hibridación y estado de promoción de los electrones",
          "url": "tema1.1.0.html"
        },
        {
          "tema": "Actividad 1",
          "url": "tema1.1.0A1.html"
        },
        {
          "tema": "Actividad 2",
          "url": "tema1.1.0A2.html"
        },
        {
          "tema": "Actividad 3",
          "url": "tema1.1.0A3.html"
        },
        {
          "tema": "Actividad 4",
          "url": "tema1.1.0A4.html"
        },
        {
          "tema": "Práctica experimental 1",
          "url": "tema1.1.0A4_practica_experimental1.html"
        }
      ]
    },
    {
      "tema": "Fórmulas orgánicas",
      "subtemas": [
        {
          "tema": "Tipos de fórmulas",
          "url": "tema2.0.0.html"
        },
        {
          "tema": "Fórmula molecular o condensada",
          "url": "tema2.1.0.html"
        },
        {
          "tema": "Fórmula semidesarrollada o estructural",
          "url": "tema2.2.0.html"
        },
        {
          "tema": "Fórmula desarrollada",
          "url": "tema2.3.0.html"
        },
        {
          "tema": "Fórmula taquigráfica",
          "url": "tema2.4.0.html"
        },
        {
          "tema": "Actividad 5",
          "url": "tema2.4.0A5.html"
        },
        {
          "tema": "Actividad 6",
          "url": "tema2.4.0A6.html"
        },
        {
          "tema": "Práctica experimental 2",
          "url": "tema2.4.0A6_practica_experimental2.html"
        }
      ]
    },
    {
      "tema": "Tipos de cadenas",
      "subtemas": [
        {
          "tema": "Tipos de cadenas",
          "url": "tema3.0.0.html"
        },
        {
          "tema": "Actividad 7",
          "url": "tema3.0.0A7.html"
        },
        {
          "tema": "Práctica experimental 3",
          "url": "tema3.0.0A7_practica_experimental3.html"
        },
        {
          "tema": "Actividad 8",
          "url": "tema3.0.0A8.html"
        },
        {
          "tema": "ORIÉNTATE",
          "url": "tema3.0.0A8_orientate.html"
        }
      ]
    },
    {
      "tema": "Isomería",
      "subtemas": [
        {
          "tema": "Isomería estructural",
          "url": "tema4.0.0.html"
        },
        {
          "tema": "Isomería posicional",
          "url": "tema4.1.0.html"
        },
        {
          "tema": "Isomería funcional",
          "url": "tema4.2.0.html"
        },
        {
          "tema": "Isomería geométrica",
          "url": "tema4.3.0.html"
        },
        {
          "tema": "Isomería óptica",
          "url": "tema4.4.0.html"
        },
        {
          "tema": "Actividad 9",
          "url": "tema4.4.0A9.html"
        },
        {
          "tema": "Práctica experimental 4",
          "url": "tema4.4.0A9_practica_experimental4.html"
        },
        {
          "tema": "ORIÉNTATE",
          "url": "tema4.4.1_orientate.html"
        }
      ]
    },
    {
      "tema": "Hidrocarburos",
      "subtemas": [
        {
          "tema": "Alcanos",
          "url": "tema5.0.0.html"
        },
        {
          "tema": "Alquenos",
          "url": "tema5.1.0.html"
        },
        {
          "tema": "Alquinos",
          "url": "tema5.2.0.html"
        },
        {
          "tema": "Aromáticos",
          "url": "tema5.3.0.html"
        },
        {
          "tema": "Benceno",
          "url": "tema5.4.0.html"
        },
        {
          "tema": "Actividad 10",
          "url": "tema5.4.0A10.html"
        },
        {
          "tema": "Actividad 11",
          "url": "tema5.4.0A11.html"
        },
        {
          "tema": "Actividad 12",
          "url": "tema5.4.0A12.html"
        },
        {
          "tema": "Actividad 13",
          "url": "tema5.4.0A13.html"
        },
        {
          "tema": "Práctica experimental 5",
          "url": "tema5.4.0A13_practica_experimental5.html"
        }
      ]
    },
    {
      "tema": "Propiedades de los hidrocarburos",
      "subtemas": [
        {
          "tema": "Combustión",
          "url": "tema6.0.0.html"
        },
        {
          "tema": "Actividad 14",
          "url": "tema6.0.0A14.html"
        },
        {
          "tema": "Actividad 15",
          "url": "tema6.0.0A15.html"
        },
        {
          "tema": "Práctica experimental 6",
          "url": "tema6.0.0A15_practica_experimental6.html"
        },
        {
          "tema": "Integración",
          "url": "tema6.0.1_integracion.html"
        }
      ]
    },
    {
      "tema": "Grupos funcionales",
      "subtemas": [
        {
          "tema": "Grupos funcionales",
          "url": "tema7.0.0.html"
        },
        {
          "tema": "Alcoholes",
          "url": "tema7.1.0.html"
        },
        {
          "tema": "Éteres",
          "url": "tema7.2.0.html"
        },
        {
          "tema": "Halogenuros de alquilo",
          "url": "tema7.3.0.html"
        },
        {
          "tema": "Aminas",
          "url": "tema7.4.0.html"
        },
        {
          "tema": "Aldehídos",
          "url": "tema7.5.0.html"
        },
        {
          "tema": "Cetonas",
          "url": "tema7.6.0.html"
        },
        {
          "tema": "Ácidos carboxílicos",
          "url": "tema7.7.0.html"
        },
        {
          "tema": "Ésteres",
          "url": "tema7.8.0.html"
        },
        {
          "tema": "Amidas",
          "url": "tema7.9.0.html"
        },
        {
          "tema": "Actividad 16",
          "url": "tema7.9.0A16.html"
        },
        {
          "tema": "Actividad 17",
          "url": "tema7.9.0A17.html"
        },
        {
          "tema": "Práctica experimental 7",
          "url": "tema7.9.0A17_practica_experimental7.html"
        }
      ]
    },
    {
      "tema": "Macromoléculas naturales",
      "subtemas": [
        {
          "tema": "Carbohidratos",
          "url": "tema8.0.0.html"
        },
        {
          "tema": "Monosacáridos",
          "url": "tema8.1.0.html"
        },
        {
          "tema": "Disacáridos",
          "url": "tema8.2.0.html"
        },
        {
          "tema": "Polisacáridos",
          "url": "tema8.3.0.html"
        },
        {
          "tema": "Lípidos",
          "url": "tema8.4.0.html"
        },
        {
          "tema": "Proteínas",
          "url": "tema8.5.0.html"
        },
        {
          "tema": "Ácidos nucleicos",
          "url": "tema8.6.0.html"
        },
        {
          "tema": "Actividad 18",
          "url": "tema8.6.0A18.html"
        },
        {
          "tema": "Actividad 19",
          "url": "tema8.6.0A19.html"
        },
        {
          "tema": "Práctica experimental 8",
          "url": "tema8.6.0A19_practica_experimental8.html"
        },
        {
          "tema": "ORIÉNTATE",
          "url": "tema8.6.1_orientate.html"
        }
      ]
    },
    {
      "tema": "Macromoléculas sintéticas",
      "subtemas": [
        {
          "tema": "Polímeros",
          "url": "tema9.0.0.html"
        },
        {
          "tema": "Actividad 20",
          "url": "tema9.0.0A20.html"
        },
        {
          "tema": "Actividad 21",
          "url": "tema9.0.0A21.html"
        },
        {
          "tema": "Fomento a la lectura",
          "url": "tema9.0.0A21_lectura.html"
        },
        {
          "tema": "Evaluación formativa",
          "url": "tema9.0.1_evaluacion_formativa.html"
        },
        {
          "tema": "Integración",
          "url": "tema9.0.1_integracion.html"
        },
        {
          "tema": "Autoevaluación",
          "url": "tema9.0.2_autoevaluacion.html"
        },
        {
          "tema": "Evaluación sumativa",
          "url": "tema9.0.2_evaluacion_sumativa.html"
        },
        {
          "tema": "Prueba tipo PLANEA",
          "url": "tema9.0.2_prueba_planea.html"
        }
      ]
    }
  ]
}
